vhdl work "ipcore_dir/DC_C_IP_MULT.vhd"
vhdl work "ipcore_dir/DC_IP_MULTIPLIER.vhd"
vhdl work "DK_C_mM.vhd"
vhdl work "DC_C_MULT.vhd"
vhdl work "C:/Users/Dima/Desktop/DK_lab2/DK_MULTIPLIER.vhd"
vhdl work "C:/Users/Dima/Desktop/DK_lab2/DK_mMULTIPLIER.vhd"
vhdl work "DK_SCH_ALL.vhf"
